EESchema Schematic File Version 4
EELAYER 30 0
EELAYER END
$Descr A4 11693 8268
encoding utf-8
Sheet 1 1
Title "USB RGB LED Adaptor - The Bussel4"
Date "2021-04-28"
Rev "1.0"
Comp "Parkview Research Labs"
Comment1 ""
Comment2 ""
Comment3 ""
Comment4 ""
$EndDescr
$Comp
L Connector:Conn_01x01_Male J1
U 1 1 606AAD71
P 2530 2860
F 0 "J1" V 2555 2760 50  0000 C CNN
F 1 "3.3V Data In" V 2190 2555 50  0001 C CNN
F 2 "Connector_PinHeader_2.54mm:PinHeader_1x01_P2.54mm_Horizontal" H 2530 2860 50  0001 C CNN
F 3 "~" H 2530 2860 50  0001 C CNN
F 4 "Ckmtw(Shenzhen Cankemeng)" H 2530 2860 50  0001 C CNN "MFR"
F 5 "210RE-1*40P" H 2530 2860 50  0001 C CNN "MFR_PN"
F 6 "C124365" H 2530 2860 50  0001 C CNN "Suppler1_PN"
F 7 "40 pins supplied, but use 1pin" H 2530 2860 50  0001 C CNN "Notes"
F 8 "0.1731" V 2530 2860 50  0001 C CNN "Cost-each/10x40.1"
	1    2530 2860
	0    1    1    0   
$EndComp
$Comp
L Connector:Conn_01x03_Female J2
U 1 1 606AB2B1
P 4730 3700
F 0 "J2" H 4758 3726 50  0000 L CNN
F 1 "RGB Out - PH" H 4765 3630 50  0000 L CNN
F 2 "Connector_JST:JST_PH_S3B-PH-SM4-TB_1x03-1MP_P2.00mm_Horizontal" H 4730 3700 50  0001 C CNN
F 3 "~" H 4730 3700 50  0001 C CNN
F 4 "JST Sales America" H 4730 3700 50  0001 C CNN "MFR"
F 5 "S3B-PH-SM4-TB(LF)(SN)" H 4730 3700 50  0001 C CNN "MFR_PN"
F 6 "C265101" H 4730 3700 50  0001 C CNN "Suppler1_PN"
F 7 "0.151" H 4730 3700 50  0001 C CNN "Cost-each/100"
	1    4730 3700
	1    0    0    -1  
$EndComp
$Comp
L Connector:USB_A J4
U 1 1 606AB939
P 4710 4270
F 0 "J4" H 4910 3915 50  0000 R CNN
F 1 "USB_A" H 4830 4625 50  0000 R CNN
F 2 "Connector_USB:USB_A_CONNFLY_DS1095-WNR0" H 4860 4220 50  0001 C CNN
F 3 " ~" H 4860 4220 50  0001 C CNN
F 4 "Jing Extension of the Electronic Co." H 4710 4270 50  0001 C CNN "MFR"
F 5 "902-131A1011D10100" H 4710 4270 50  0001 C CNN "MFR_PN"
F 6 "C2345" H 4710 4270 50  0001 C CNN "Suppler1_PN"
F 7 "0.0452" H 4710 4270 50  0001 C CNN "Cost-each/10"
	1    4710 4270
	-1   0    0    -1  
$EndComp
$Comp
L Connector:USB_B_Micro J3
U 1 1 606AC111
P 3280 4270
F 0 "J3" H 3375 3900 50  0000 C CNN
F 1 "USB_B_Micro" H 3310 4625 50  0000 C CNN
F 2 "Pauls_KiCAD_Libraries:USB_Micro-B_C319160" H 3430 4220 50  0001 C CNN
F 3 "~" H 3430 4220 50  0001 C CNN
F 4 "XKB Connectivity" H 3280 4270 50  0001 C CNN "MFR"
F 5 "U254-051T-4BH83-S1S" H 3280 4270 50  0001 C CNN "MFR_PN"
F 6 "C319160" H 3280 4270 50  0001 C CNN "Suppler1_PN"
F 7 "0.0506" H 3280 4270 50  0001 C CNN "Cost-each/50"
	1    3280 4270
	1    0    0    -1  
$EndComp
Wire Wire Line
	3280 4670 3280 4735
Wire Wire Line
	4710 4735 4710 4670
Wire Wire Line
	4530 3800 4235 3800
Wire Wire Line
	4235 3800 4235 4735
Connection ~ 4235 4735
Wire Wire Line
	4235 4735 4710 4735
Wire Wire Line
	4530 3600 4025 3600
Wire Wire Line
	4025 3600 4025 4070
Connection ~ 4025 4070
Wire Wire Line
	4025 4070 4410 4070
Wire Wire Line
	4530 3700 4130 3700
NoConn ~ 3580 4470
$Comp
L Connector:Conn_01x03_Female J5
U 1 1 6148788D
P 4735 3355
F 0 "J5" H 4763 3381 50  0000 L CNN
F 1 "RGB Out - PH" H 4770 3285 50  0000 L CNN
F 2 "Connector_JST:JST_PH_S3B-PH-SM4-TB_1x03-1MP_P2.00mm_Horizontal" H 4735 3355 50  0001 C CNN
F 3 "~" H 4735 3355 50  0001 C CNN
F 4 "JST Sales America" H 4735 3355 50  0001 C CNN "MFR"
F 5 "S3B-PH-SM4-TB(LF)(SN)" H 4735 3355 50  0001 C CNN "MFR_PN"
F 6 "C265101" H 4735 3355 50  0001 C CNN "Suppler1_PN"
F 7 "LCSC" H 4735 3355 50  0001 C CNN "Supplier_Source"
F 8 "0.151" H 4735 3355 50  0001 C CNN "Cost-each/100"
	1    4735 3355
	1    0    0    -1  
$EndComp
Wire Wire Line
	4535 3455 4235 3455
Connection ~ 4235 3800
Wire Wire Line
	4535 3355 4130 3355
Wire Wire Line
	4130 3355 4130 3700
Wire Wire Line
	2830 3060 2530 3060
Wire Wire Line
	4535 3255 4025 3255
Connection ~ 4025 3600
NoConn ~ 3580 4270
NoConn ~ 3580 4370
NoConn ~ 4410 4370
NoConn ~ 4410 4270
$Comp
L Connector:Conn_01x01_Male J6
U 1 1 6148DA28
P 2240 2855
F 0 "J6" V 2265 2755 50  0000 C CNN
F 1 "3.0-3.3V Data In" V 2180 3000 50  0000 C CNN
F 2 "Connector_Wire:SolderWire-0.5sqmm_1x01_D0.9mm_OD2.1mm" H 2240 2855 50  0001 C CNN
F 3 "~" H 2240 2855 50  0001 C CNN
	1    2240 2855
	0    1    1    0   
$EndComp
Wire Wire Line
	2530 3060 2240 3060
Wire Wire Line
	2240 3060 2240 3055
Connection ~ 2530 3060
Wire Wire Line
	3580 4070 4025 4070
Wire Wire Line
	3280 4735 4235 4735
Wire Wire Line
	4550 3130 4235 3130
Wire Wire Line
	4235 3130 4235 3455
Connection ~ 4235 3455
Wire Wire Line
	4235 3455 4235 3800
Connection ~ 4130 3355
Connection ~ 4025 3255
Wire Wire Line
	4025 3255 4025 3600
$Comp
L Connector_Generic:Conn_01x01 J9
U 1 1 606E7968
P 4750 3130
F 0 "J9" H 4830 3126 50  0001 L CNN
F 1 "Conn_01x01" H 4830 3081 50  0001 L CNN
F 2 "Connector_Wire:SolderWire-0.5sqmm_1x01_D0.9mm_OD2.3mm" H 4750 3130 50  0001 C CNN
F 3 "~" H 4750 3130 50  0001 C CNN
	1    4750 3130
	1    0    0    -1  
$EndComp
$Comp
L Connector_Generic:Conn_01x01 J8
U 1 1 606E8043
P 4750 3000
F 0 "J8" H 4830 2996 50  0001 L CNN
F 1 "Conn_01x01" H 4830 2951 50  0001 L CNN
F 2 "Connector_Wire:SolderWire-0.5sqmm_1x01_D0.9mm_OD2.3mm" H 4750 3000 50  0001 C CNN
F 3 "~" H 4750 3000 50  0001 C CNN
	1    4750 3000
	1    0    0    -1  
$EndComp
$Comp
L Connector_Generic:Conn_01x01 J7
U 1 1 606E8349
P 4750 2870
F 0 "J7" H 4830 2866 50  0001 L CNN
F 1 "Conn_01x01" H 4830 2821 50  0001 L CNN
F 2 "Connector_Wire:SolderWire-0.5sqmm_1x01_D0.9mm_OD2.3mm" H 4750 2870 50  0001 C CNN
F 3 "~" H 4750 2870 50  0001 C CNN
	1    4750 2870
	1    0    0    -1  
$EndComp
Wire Wire Line
	4130 3000 4550 3000
Wire Wire Line
	4550 2870 4025 2870
Wire Wire Line
	4025 2870 4025 3255
Text Notes 4130 2765 0    50   ~ 0
RGB Out, solder pads - JST Black connector
$Comp
L Logic_LevelTranslator:SN74LVC1T45DRL U1
U 1 1 6087E4FB
P 3230 3060
F 0 "U1" H 2985 2695 50  0000 L CNN
F 1 "SN74LVC1T45DRL" H 3245 2700 50  0000 L CNN
F 2 "Package_TO_SOT_SMD:SOT-563" H 3230 2610 50  0001 C CNN
F 3 "http://www.ti.com/lit/ds/symlink/sn74lvc1t45.pdf" H 2330 2410 50  0001 C CNN
F 4 "C352970" H 3230 3060 50  0001 C CNN "LCSC"
F 5 ".234" H 3230 3060 50  0001 C CNN "Cost-30"
F 6 "Texas Instruments" H 3230 3060 50  0001 C CNN "MFR"
F 7 "SN74LVC1T45DRLR" H 3230 3060 50  0001 C CNN "MFR_PN"
F 8 ".2215" H 3230 3060 50  0001 C CNN "Cost-100"
	1    3230 3060
	1    0    0    -1  
$EndComp
$Comp
L Device:C_Small C2
U 1 1 6087FB11
P 4605 1940
F 0 "C2" H 4690 2020 50  0000 C CNN
F 1 "10uF" H 4490 2015 50  0000 C CNN
F 2 "Capacitor_SMD:C_0603_1608Metric" H 4605 1940 50  0001 C CNN
F 3 "~" H 4605 1940 50  0001 C CNN
F 4 "C326057" H 4605 1940 50  0001 C CNN "LCSC"
F 5 "0.0337" H 4605 1940 50  0001 C CNN "Cost-20"
F 6 "YAGEO" H 4605 1940 50  0001 C CNN "MFR"
F 7 "CC0603KRX5R6BB106" H 4605 1940 50  0001 C CNN "MFR_PN"
F 8 "0.0256" H 4605 1940 50  0001 C CNN "Cost-200"
	1    4605 1940
	1    0    0    -1  
$EndComp
$Comp
L Device:C_Small C4
U 1 1 6087FF5D
P 3565 2505
F 0 "C4" V 3445 2445 50  0000 C CNN
F 1 "100nF" V 3440 2665 50  0000 C CNN
F 2 "Capacitor_SMD:C_0603_1608Metric" H 3565 2505 50  0001 C CNN
F 3 "~" H 3565 2505 50  0001 C CNN
F 4 "C108079" H 3565 2505 50  0001 C CNN "LCSC"
F 5 "0.0059" H 3565 2505 50  0001 C CNN "Cost-50"
F 6 "YAGEO" H 3565 2505 50  0001 C CNN "MFR"
F 7 "CC0603KRX7R7BB104" H 3565 2505 50  0001 C CNN "MFR_PN"
F 8 "0.0047" H 3565 2505 50  0001 C CNN "Cost-500"
	1    3565 2505
	0    1    1    0   
$EndComp
$Comp
L power:GND #PWR012
U 1 1 60880715
P 3230 3520
F 0 "#PWR012" H 3230 3270 50  0001 C CNN
F 1 "GND" H 3235 3347 50  0000 C CNN
F 2 "" H 3230 3520 50  0001 C CNN
F 3 "" H 3230 3520 50  0001 C CNN
	1    3230 3520
	1    0    0    -1  
$EndComp
$Comp
L Pauls_Symbol_Library:+3.3V #PWR011
U 1 1 6088124C
P 2720 3230
F 0 "#PWR011" H 2720 3080 50  0001 C CNN
F 1 "+3.3V" H 2565 3280 50  0000 C CNN
F 2 "" H 2720 3230 50  0001 C CNN
F 3 "" H 2720 3230 50  0001 C CNN
	1    2720 3230
	1    0    0    -1  
$EndComp
$Comp
L power:+5V #PWR08
U 1 1 60881D80
P 3330 2450
F 0 "#PWR08" H 3330 2300 50  0001 C CNN
F 1 "+5V" H 3345 2623 50  0000 C CNN
F 2 "" H 3330 2450 50  0001 C CNN
F 3 "" H 3330 2450 50  0001 C CNN
	1    3330 2450
	1    0    0    -1  
$EndComp
Wire Wire Line
	3230 3460 3230 3520
Wire Wire Line
	2830 3260 2720 3260
Wire Wire Line
	2720 3260 2720 3230
Wire Wire Line
	3465 2505 3330 2505
Wire Wire Line
	3330 2505 3330 2450
Connection ~ 3330 2505
$Comp
L Pauls_Symbol_Library:+3.3V #PWR07
U 1 1 608925B9
P 3130 2425
F 0 "#PWR07" H 3130 2275 50  0001 C CNN
F 1 "+3.3V" H 3130 2575 50  0000 C CNN
F 2 "" H 3130 2425 50  0001 C CNN
F 3 "" H 3130 2425 50  0001 C CNN
	1    3130 2425
	1    0    0    -1  
$EndComp
Wire Wire Line
	3130 2660 3130 2580
Wire Wire Line
	3030 2580 3130 2580
Connection ~ 3130 2580
Wire Wire Line
	3130 2580 3130 2470
$Comp
L power:GND #PWR09
U 1 1 60894E6E
P 2770 2620
F 0 "#PWR09" H 2770 2370 50  0001 C CNN
F 1 "GND" H 2870 2515 50  0000 C CNN
F 2 "" H 2770 2620 50  0001 C CNN
F 3 "" H 2770 2620 50  0001 C CNN
	1    2770 2620
	1    0    0    -1  
$EndComp
Wire Wire Line
	2830 2580 2770 2580
Wire Wire Line
	2770 2580 2770 2620
$Comp
L power:GND #PWR010
U 1 1 60896179
P 3730 2705
F 0 "#PWR010" H 3730 2455 50  0001 C CNN
F 1 "GND" H 3830 2600 50  0000 C CNN
F 2 "" H 3730 2705 50  0001 C CNN
F 3 "" H 3730 2705 50  0001 C CNN
	1    3730 2705
	1    0    0    -1  
$EndComp
Wire Wire Line
	3665 2505 3730 2505
Wire Wire Line
	3630 3060 4130 3060
Wire Wire Line
	4130 3000 4130 3060
Connection ~ 4130 3060
Wire Wire Line
	4130 3060 4130 3355
Text Notes 4825 2900 0    50   ~ 0
5V Out
Text Notes 4820 3030 0    50   ~ 0
5V Data Out
Text Notes 4820 3160 0    50   ~ 0
GND
Text Notes 1995 3665 0    50   ~ 0
DIR \n= high (3.3V/5V)  A --> B\n= low (GND)  A< -- B\n
Wire Wire Line
	3730 2505 3730 2705
$Comp
L power:GND #PWR05
U 1 1 608A2C0A
P 4605 2100
F 0 "#PWR05" H 4605 1850 50  0001 C CNN
F 1 "GND" H 4705 1995 50  0000 C CNN
F 2 "" H 4605 2100 50  0001 C CNN
F 3 "" H 4605 2100 50  0001 C CNN
	1    4605 2100
	1    0    0    -1  
$EndComp
$Comp
L power:+5V #PWR02
U 1 1 608A31DB
P 4605 1780
F 0 "#PWR02" H 4605 1630 50  0001 C CNN
F 1 "+5V" H 4620 1953 50  0000 C CNN
F 2 "" H 4605 1780 50  0001 C CNN
F 3 "" H 4605 1780 50  0001 C CNN
	1    4605 1780
	1    0    0    -1  
$EndComp
Wire Wire Line
	4605 1840 4605 1780
Wire Wire Line
	4605 2040 4605 2100
$Comp
L power:GND #PWR04
U 1 1 608A574C
P 4995 2095
F 0 "#PWR04" H 4995 1845 50  0001 C CNN
F 1 "GND" H 5095 1990 50  0000 C CNN
F 2 "" H 4995 2095 50  0001 C CNN
F 3 "" H 4995 2095 50  0001 C CNN
	1    4995 2095
	1    0    0    -1  
$EndComp
$Comp
L power:+5V #PWR01
U 1 1 608A5756
P 4995 1775
F 0 "#PWR01" H 4995 1625 50  0001 C CNN
F 1 "+5V" H 5010 1948 50  0000 C CNN
F 2 "" H 4995 1775 50  0001 C CNN
F 3 "" H 4995 1775 50  0001 C CNN
	1    4995 1775
	1    0    0    -1  
$EndComp
Wire Wire Line
	4995 1835 4995 1775
Wire Wire Line
	4995 2035 4995 2095
$Comp
L power:GND #PWR06
U 1 1 608A7374
P 5360 2090
F 0 "#PWR06" H 5360 1840 50  0001 C CNN
F 1 "GND" H 5460 1985 50  0000 C CNN
F 2 "" H 5360 2090 50  0001 C CNN
F 3 "" H 5360 2090 50  0001 C CNN
	1    5360 2090
	1    0    0    -1  
$EndComp
$Comp
L power:+5V #PWR03
U 1 1 608A737E
P 5360 1770
F 0 "#PWR03" H 5360 1620 50  0001 C CNN
F 1 "+5V" H 5375 1943 50  0000 C CNN
F 2 "" H 5360 1770 50  0001 C CNN
F 3 "" H 5360 1770 50  0001 C CNN
	1    5360 1770
	1    0    0    -1  
$EndComp
Wire Wire Line
	5360 1830 5360 1770
Wire Wire Line
	5360 2030 5360 2090
$Comp
L power:+5V #PWR0101
U 1 1 608AA1E0
P 4025 2770
F 0 "#PWR0101" H 4025 2620 50  0001 C CNN
F 1 "+5V" H 4040 2943 50  0000 C CNN
F 2 "" H 4025 2770 50  0001 C CNN
F 3 "" H 4025 2770 50  0001 C CNN
	1    4025 2770
	1    0    0    -1  
$EndComp
Wire Wire Line
	4025 2870 4025 2770
Connection ~ 4025 2870
$Comp
L power:GND #PWR0102
U 1 1 608ABC5F
P 4235 4875
F 0 "#PWR0102" H 4235 4625 50  0001 C CNN
F 1 "GND" H 4335 4770 50  0000 C CNN
F 2 "" H 4235 4875 50  0001 C CNN
F 3 "" H 4235 4875 50  0001 C CNN
	1    4235 4875
	1    0    0    -1  
$EndComp
Wire Wire Line
	4235 4735 4235 4875
Wire Wire Line
	3180 5070 4810 5070
Wire Wire Line
	4810 4670 4810 5070
Wire Wire Line
	3180 4670 3180 5070
$Comp
L Connector:Conn_01x01_Male J10
U 1 1 608B058C
P 2965 2175
F 0 "J10" V 3030 2060 50  0000 C CNN
F 1 "3.3V in" V 2890 2125 50  0001 C CNN
F 2 "Connector_PinHeader_2.54mm:PinHeader_1x01_P2.54mm_Horizontal" H 2965 2175 50  0001 C CNN
F 3 "~" H 2965 2175 50  0001 C CNN
	1    2965 2175
	0    1    1    0   
$EndComp
Wire Wire Line
	2965 2375 2965 2470
Wire Wire Line
	2965 2470 3130 2470
Connection ~ 3130 2470
Wire Wire Line
	3130 2470 3130 2425
Wire Wire Line
	3330 2505 3330 2660
$Comp
L Connector:Conn_01x01_Male J11
U 1 1 608E2DAB
P 2745 2180
F 0 "J11" V 2770 2080 50  0000 C CNN
F 1 "3.0-3.3V Power In" V 2680 2315 50  0000 C CNN
F 2 "Connector_Wire:SolderWire-0.5sqmm_1x01_D0.9mm_OD2.1mm" H 2745 2180 50  0001 C CNN
F 3 "~" H 2745 2180 50  0001 C CNN
	1    2745 2180
	0    1    1    0   
$EndComp
Wire Wire Line
	2965 2470 2745 2470
Wire Wire Line
	2745 2470 2745 2380
Connection ~ 2965 2470
Wire Notes Line
	3925 1935 3925 3785
Wire Notes Line
	1895 3785 1895 1910
Wire Notes Line
	1895 1910 3930 1910
Wire Notes Line
	1895 3785 3925 3785
Text Notes 1950 2030 0    50   ~ 0
Data Voltage Translator
Text Notes 2475 4290 0    50   ~ 0
USB Power In
Text Notes 4950 4255 0    50   ~ 0
USB Power Out
$Comp
L Device:C_Small C3
U 1 1 608FE40C
P 4995 1935
F 0 "C3" H 5060 2010 50  0000 C CNN
F 1 "10uF" H 4900 2010 50  0000 C CNN
F 2 "Capacitor_SMD:C_0603_1608Metric" H 4995 1935 50  0001 C CNN
F 3 "~" H 4995 1935 50  0001 C CNN
F 4 "C326057" H 4995 1935 50  0001 C CNN "LCSC"
F 5 "0.0337" H 4995 1935 50  0001 C CNN "Cost-20"
F 6 "YAGEO" H 4995 1935 50  0001 C CNN "MFR"
F 7 "CC0603KRX5R6BB106" H 4995 1935 50  0001 C CNN "MFR_PN"
F 8 "0.0256" H 4995 1935 50  0001 C CNN "Cost-200"
	1    4995 1935
	1    0    0    -1  
$EndComp
$Comp
L Device:C_Small C1
U 1 1 608FEBED
P 5360 1930
F 0 "C1" H 5435 2010 50  0000 C CNN
F 1 "10uF" H 5265 2010 50  0000 C CNN
F 2 "Capacitor_SMD:C_0603_1608Metric" H 5360 1930 50  0001 C CNN
F 3 "~" H 5360 1930 50  0001 C CNN
F 4 "C326057" H 5360 1930 50  0001 C CNN "LCSC"
F 5 "0.0337" H 5360 1930 50  0001 C CNN "Cost-20"
F 6 "YAGEO" H 5360 1930 50  0001 C CNN "MFR"
F 7 "CC0603KRX5R6BB106" H 5360 1930 50  0001 C CNN "MFR_PN"
F 8 "0.0256" H 5360 1930 50  0001 C CNN "Cost-200"
	1    5360 1930
	1    0    0    -1  
$EndComp
$Comp
L Device:C_Small C5
U 1 1 60900DFB
P 2930 2580
F 0 "C5" V 2885 2675 50  0000 C CNN
F 1 "100nF" V 2890 2440 50  0000 C CNN
F 2 "Capacitor_SMD:C_0603_1608Metric" H 2930 2580 50  0001 C CNN
F 3 "~" H 2930 2580 50  0001 C CNN
F 4 "C108079" H 2930 2580 50  0001 C CNN "LCSC"
F 5 "0.0059" H 2930 2580 50  0001 C CNN "Cost-50"
F 6 "YAGEO" H 2930 2580 50  0001 C CNN "MFR"
F 7 "CC0603KRX7R7BB104" H 2930 2580 50  0001 C CNN "MFR_PN"
F 8 "0.0047" H 2930 2580 50  0001 C CNN "Cost-500"
	1    2930 2580
	0    1    1    0   
$EndComp
$EndSCHEMATC
